{"failedCount":0,"prefixedPath":"src\/test\/java\/users\/users-crud.feature","packageQualifiedName":"src.test.java.users.users-crud","loopIndex":-1,"relativePath":"src\/test\/java\/users\/users-crud.feature","scenarioResults":[{"sectionIndex":1,"stepResults":[{"result":{"nanos":59289000,"millis":59.289,"status":"passed"},"step":{"background":true,"line":3,"prefix":"*","index":0,"text":"url \"https:\/\/reqres.in\/api\""}},{"result":{"nanos":505900,"millis":0.5059,"status":"passed"},"step":{"line":17,"prefix":"Given","index":0,"text":"path \"\/users?page=(id)\""}},{"result":{"nanos":1534700900,"millis":1534.7009,"status":"passed"},"step":{"line":18,"prefix":"When","index":1,"text":"method get"},"stepLog":"18:09:46.410 request:\n1 > GET https:\/\/reqres.in\/api\/users%3Fpage=(id)\n1 > Host: reqres.in\n1 > Connection: Keep-Alive\n1 > User-Agent: Apache-HttpClient\/4.5.13 (Java\/1.8.0_161)\n1 > Accept-Encoding: gzip,deflate\n\n\n18:09:47.281 response time in milliseconds: 869\n1 < 200\n1 < Date: Fri, 21 Oct 2022 22:09:29 GMT\n1 < Content-Type: application\/json; charset=utf-8\n1 < Transfer-Encoding: chunked\n1 < Connection: keep-alive\n1 < X-Powered-By: Express\n1 < Access-Control-Allow-Origin: *\n1 < Etag: W\/\"2c1-N6Rqerxquq2kgQhL51EiSg4x0R8\"\n1 < Via: 1.1 vegur\n1 < Cache-Control: max-age=14400\n1 < CF-Cache-Status: MISS\n1 < Report-To: {\"endpoints\":[{\"url\":\"https:\\\/\\\/a.nel.cloudflare.com\\\/report\\\/v3?s=3jOqON9xh0CgGCDvielTLZFYsgTsXr7Y8mWJnjustUqm0zU8jc01xwgp1p%2F4Xuizu2St5tenX946UbC%2BY4gaeg4sJP9v1YvzxL7e3Vp06bPvCaDmjSIrJsZRxA%3D%3D\"}],\"group\":\"cf-nel\",\"max_age\":604800}\n1 < NEL: {\"success_fraction\":0,\"report_to\":\"cf-nel\",\"max_age\":604800}\n1 < Vary: Accept-Encoding\n1 < Server: cloudflare\n1 < CF-RAY: 75dd515e796b8dd8-MIA\n{\"page\":1,\"per_page\":6,\"total\":12,\"total_pages\":2,\"data\":[{\"id\":1,\"name\":\"cerulean\",\"year\":2000,\"color\":\"#98B2D1\",\"pantone_value\":\"15-4020\"},{\"id\":2,\"name\":\"fuchsia rose\",\"year\":2001,\"color\":\"#C74375\",\"pantone_value\":\"17-2031\"},{\"id\":3,\"name\":\"true red\",\"year\":2002,\"color\":\"#BF1932\",\"pantone_value\":\"19-1664\"},{\"id\":4,\"name\":\"aqua sky\",\"year\":2003,\"color\":\"#7BC4C4\",\"pantone_value\":\"14-4811\"},{\"id\":5,\"name\":\"tigerlily\",\"year\":2004,\"color\":\"#E2583E\",\"pantone_value\":\"17-1456\"},{\"id\":6,\"name\":\"blue turquoise\",\"year\":2005,\"color\":\"#53B0AE\",\"pantone_value\":\"15-5217\"}],\"support\":{\"url\":\"https:\/\/reqres.in\/#support-heading\",\"text\":\"To keep ReqRes free, contributions towards server costs are appreciated!\"}}\n\n"},{"result":{"nanos":11500,"millis":0.0115,"status":"passed"},"step":{"line":19,"prefix":"Then","index":2,"text":"status 200"}}],"executorName":"main","line":15,"name":"Obtener usuarios","description":"","durationMillis":1594.5073,"startTime":1666390185699,"failed":false,"refId":"[2:15]","endTime":1666390187304,"exampleIndex":-1}],"callDepth":0,"name":"Crud users","description":"","resultDate":"2022-10-21 06:09:47 PM","durationMillis":1594.5073,"passedCount":1}