{"failedCount":1,"prefixedPath":"src\/test\/java\/users\/users-get.feature","packageQualifiedName":"src.test.java.users.users-get","loopIndex":-1,"relativePath":"src\/test\/java\/users\/users-get.feature","scenarioResults":[{"sectionIndex":0,"stepResults":[{"result":{"nanos":57874000,"millis":57.874,"status":"passed"},"step":{"line":3,"prefix":"Given","index":0,"text":"url \"https:\/\/reqres.in\/api\/users?page=2\""}},{"result":{"nanos":1288381900,"millis":1288.3819,"status":"passed"},"step":{"line":4,"prefix":"When","index":1,"text":"method get"},"stepLog":"18:05:48.801 request:\n1 > GET https:\/\/reqres.in\/api\/users?page=2\n1 > Host: reqres.in\n1 > Connection: Keep-Alive\n1 > User-Agent: Apache-HttpClient\/4.5.13 (Java\/1.8.0_161)\n1 > Accept-Encoding: gzip,deflate\n\n\n18:05:49.422 response time in milliseconds: 619\n1 < 200\n1 < Date: Mon, 17 Oct 2022 22:05:32 GMT\n1 < Content-Type: application\/json; charset=utf-8\n1 < Transfer-Encoding: chunked\n1 < Connection: keep-alive\n1 < X-Powered-By: Express\n1 < Access-Control-Allow-Origin: *\n1 < Etag: W\/\"406-ut0vzoCuidvyMf8arZpMpJ6ZRDw\"\n1 < Via: 1.1 vegur\n1 < Cache-Control: max-age=14400\n1 < CF-Cache-Status: HIT\n1 < Age: 5059\n1 < Report-To: {\"endpoints\":[{\"url\":\"https:\\\/\\\/a.nel.cloudflare.com\\\/report\\\/v3?s=Rh3seyJqHfFwwgGVrTUBVtfiQqiHO%2FG8gWiwaVd92R1vt8i8J%2FeoOgw3bT1E0TurZ2sHxhmmT%2FeoSMSEnrKUJXDidi6SfmPb223VyR08drk6nbmq5nM0jGFJSA%3D%3D\"}],\"group\":\"cf-nel\",\"max_age\":604800}\n1 < NEL: {\"success_fraction\":0,\"report_to\":\"cf-nel\",\"max_age\":604800}\n1 < Vary: Accept-Encoding\n1 < Server: cloudflare\n1 < CF-RAY: 75bc5613589767b4-MIA\n{\"page\":2,\"per_page\":6,\"total\":12,\"total_pages\":2,\"data\":[{\"id\":7,\"email\":\"michael.lawson@reqres.in\",\"first_name\":\"Michael\",\"last_name\":\"Lawson\",\"avatar\":\"https:\/\/reqres.in\/img\/faces\/7-image.jpg\"},{\"id\":8,\"email\":\"lindsay.ferguson@reqres.in\",\"first_name\":\"Lindsay\",\"last_name\":\"Ferguson\",\"avatar\":\"https:\/\/reqres.in\/img\/faces\/8-image.jpg\"},{\"id\":9,\"email\":\"tobias.funke@reqres.in\",\"first_name\":\"Tobias\",\"last_name\":\"Funke\",\"avatar\":\"https:\/\/reqres.in\/img\/faces\/9-image.jpg\"},{\"id\":10,\"email\":\"byron.fields@reqres.in\",\"first_name\":\"Byron\",\"last_name\":\"Fields\",\"avatar\":\"https:\/\/reqres.in\/img\/faces\/10-image.jpg\"},{\"id\":11,\"email\":\"george.edwards@reqres.in\",\"first_name\":\"George\",\"last_name\":\"Edwards\",\"avatar\":\"https:\/\/reqres.in\/img\/faces\/11-image.jpg\"},{\"id\":12,\"email\":\"rachel.howell@reqres.in\",\"first_name\":\"Rachel\",\"last_name\":\"Howell\",\"avatar\":\"https:\/\/reqres.in\/img\/faces\/12-image.jpg\"}],\"support\":{\"url\":\"https:\/\/reqres.in\/#support-heading\",\"text\":\"To keep ReqRes free, contributions towards server costs are appreciated!\"}}\n\n"},{"result":{"nanos":0,"errorMessage":"no step-definition method match found for: 200\nsrc\/test\/java\/users\/users-get.feature:5","millis":0.0,"status":"failed"},"step":{"line":5,"prefix":"Then","index":2,"text":"200"},"stepLog":"18:05:49.444 src\/test\/java\/users\/users-get.feature:5\nThen 200\nno step-definition method match found for: 200\nsrc\/test\/java\/users\/users-get.feature:5\n"}],"line":2,"description":"","durationMillis":1346.2559,"failed":true,"error":"no step-definition method match found for: 200\nsrc\/test\/java\/users\/users-get.feature:5","executorName":"main","name":"Retrieve users data","startTime":1666044348085,"refId":"[1:2]","endTime":1666044349444,"exampleIndex":-1}],"callDepth":0,"name":"test users from reqres.in","description":"","resultDate":"2022-10-17 06:05:49 PM","durationMillis":1346.2559,"passedCount":0}