{"failedCount":0,"prefixedPath":"src\/test\/java\/users\/users-crud.feature","packageQualifiedName":"src.test.java.users.users-crud","loopIndex":-1,"relativePath":"src\/test\/java\/users\/users-crud.feature","scenarioResults":[{"sectionIndex":0,"stepResults":[{"result":{"nanos":81014000,"millis":81.014,"status":"passed"},"step":{"background":true,"line":3,"prefix":"*","index":0,"text":"url \"https:\/\/reqres.in\/api\""}},{"result":{"nanos":776900,"millis":0.7769,"status":"passed"},"step":{"line":6,"prefix":"Given","index":0,"text":"path \"\/users\""}},{"result":{"nanos":1820088300,"millis":1820.0883,"status":"passed"},"step":{"line":7,"prefix":"When","index":1,"text":"method post"},"stepLog":"18:10:37.588 request:\n1 > POST https:\/\/reqres.in\/api\/users\n1 > Host: reqres.in\n1 > Connection: Keep-Alive\n1 > User-Agent: Apache-HttpClient\/4.5.13 (Java\/1.8.0_161)\n1 > Accept-Encoding: gzip,deflate\n\n\n18:10:38.527 response time in milliseconds: 937\n1 < 201\n1 < Date: Fri, 21 Oct 2022 22:10:20 GMT\n1 < Content-Type: application\/json; charset=utf-8\n1 < Content-Length: 51\n1 < Connection: keep-alive\n1 < X-Powered-By: Express\n1 < Access-Control-Allow-Origin: *\n1 < Etag: W\/\"33-X7cHJJJZLgv0nrFNCGe0xG9d+FA\"\n1 < Via: 1.1 vegur\n1 < CF-Cache-Status: DYNAMIC\n1 < Report-To: {\"endpoints\":[{\"url\":\"https:\\\/\\\/a.nel.cloudflare.com\\\/report\\\/v3?s=vFZh4zSOL091hgq3R6CnskWDWts7CP8%2BbscXKYQop42n3baSvuQin7cyFq366iJi2lEkiS20rcsnqMYg9aX2CLFY%2B31vH07w3DHOdbqzV56618Y0B4V9Z0Y4Cg%3D%3D\"}],\"group\":\"cf-nel\",\"max_age\":604800}\n1 < NEL: {\"success_fraction\":0,\"report_to\":\"cf-nel\",\"max_age\":604800}\n1 < Server: cloudflare\n1 < CF-RAY: 75dd529ecb87b3c1-MIA\n{\"id\":\"634\",\"createdAt\":\"2022-10-21T22:10:20.795Z\"}\n\n"},{"result":{"nanos":12700,"millis":0.0127,"status":"passed"},"step":{"line":8,"prefix":"Then","index":2,"text":"status 201"}},{"result":{"nanos":1192300,"millis":1.1923,"status":"passed"},"step":{"comments":["#* def id = response.id","# * print id = 2"],"line":11,"prefix":"*","index":3,"text":"def id = \"2\""}}],"executorName":"main","line":5,"name":"Crear usuario","description":"","durationMillis":1903.0842,"startTime":1666390236634,"failed":false,"refId":"[1:5]","endTime":1666390238550,"exampleIndex":-1},{"sectionIndex":1,"stepResults":[{"result":{"nanos":294700,"millis":0.2947,"status":"passed"},"step":{"background":true,"line":3,"prefix":"*","index":0,"text":"url \"https:\/\/reqres.in\/api\""}},{"result":{"nanos":491500,"millis":0.4915,"status":"passed"},"step":{"line":17,"prefix":"Given","index":0,"text":"path \"\/users?page=(id)\""}},{"result":{"nanos":760857200,"millis":760.8572,"status":"passed"},"step":{"line":18,"prefix":"When","index":1,"text":"method get"},"stepLog":"18:10:38.560 request:\n1 > GET https:\/\/reqres.in\/api\/users%3Fpage=(id)\n1 > Host: reqres.in\n1 > Connection: Keep-Alive\n1 > User-Agent: Apache-HttpClient\/4.5.13 (Java\/1.8.0_161)\n1 > Accept-Encoding: gzip,deflate\n\n\n18:10:39.319 response time in milliseconds: 759\n1 < 200\n1 < Date: Fri, 21 Oct 2022 22:10:21 GMT\n1 < Content-Type: application\/json; charset=utf-8\n1 < Transfer-Encoding: chunked\n1 < Connection: keep-alive\n1 < X-Powered-By: Express\n1 < Access-Control-Allow-Origin: *\n1 < Etag: W\/\"2c1-N6Rqerxquq2kgQhL51EiSg4x0R8\"\n1 < Via: 1.1 vegur\n1 < Cache-Control: max-age=14400\n1 < CF-Cache-Status: MISS\n1 < Report-To: {\"endpoints\":[{\"url\":\"https:\\\/\\\/a.nel.cloudflare.com\\\/report\\\/v3?s=xE69aTSDhI1uaTXGhf8cD06IALs8gErxiulKlGzIuKwzweJJ082SmUBrGZl8qRbWgXVrn5MDXeAfiLsu%2BQLI0O2eVmvXk%2BBtKRERye8WKFQbft22haUZeDvfZw%3D%3D\"}],\"group\":\"cf-nel\",\"max_age\":604800}\n1 < NEL: {\"success_fraction\":0,\"report_to\":\"cf-nel\",\"max_age\":604800}\n1 < Vary: Accept-Encoding\n1 < Server: cloudflare\n1 < CF-RAY: 75dd52a3cee86dd1-MIA\n{\"page\":1,\"per_page\":6,\"total\":12,\"total_pages\":2,\"data\":[{\"id\":1,\"name\":\"cerulean\",\"year\":2000,\"color\":\"#98B2D1\",\"pantone_value\":\"15-4020\"},{\"id\":2,\"name\":\"fuchsia rose\",\"year\":2001,\"color\":\"#C74375\",\"pantone_value\":\"17-2031\"},{\"id\":3,\"name\":\"true red\",\"year\":2002,\"color\":\"#BF1932\",\"pantone_value\":\"19-1664\"},{\"id\":4,\"name\":\"aqua sky\",\"year\":2003,\"color\":\"#7BC4C4\",\"pantone_value\":\"14-4811\"},{\"id\":5,\"name\":\"tigerlily\",\"year\":2004,\"color\":\"#E2583E\",\"pantone_value\":\"17-1456\"},{\"id\":6,\"name\":\"blue turquoise\",\"year\":2005,\"color\":\"#53B0AE\",\"pantone_value\":\"15-5217\"}],\"support\":{\"url\":\"https:\/\/reqres.in\/#support-heading\",\"text\":\"To keep ReqRes free, contributions towards server costs are appreciated!\"}}\n\n"},{"result":{"nanos":7000,"millis":0.007,"status":"passed"},"step":{"line":19,"prefix":"Then","index":2,"text":"status 200"}}],"executorName":"main","line":15,"name":"Obtener usuarios","description":"","durationMillis":761.6504,"startTime":1666390238558,"failed":false,"refId":"[2:15]","endTime":1666390239320,"exampleIndex":-1},{"sectionIndex":2,"stepResults":[{"result":{"nanos":203500,"millis":0.2035,"status":"passed"},"step":{"background":true,"line":3,"prefix":"*","index":0,"text":"url \"https:\/\/reqres.in\/api\""}},{"result":{"nanos":321400,"millis":0.3214,"status":"passed"},"step":{"line":22,"prefix":"Given","index":0,"text":"path \"\/users\/(id)\""}},{"result":{"nanos":748998700,"millis":748.9987,"status":"passed"},"step":{"line":23,"prefix":"When","index":1,"text":"method delete"},"stepLog":"18:10:39.324 request:\n1 > DELETE https:\/\/reqres.in\/api\/users\/(id)\n1 > Host: reqres.in\n1 > Connection: Keep-Alive\n1 > User-Agent: Apache-HttpClient\/4.5.13 (Java\/1.8.0_161)\n1 > Accept-Encoding: gzip,deflate\n\n\n18:10:40.072 response time in milliseconds: 748\n1 < 204\n1 < Date: Fri, 21 Oct 2022 22:10:22 GMT\n1 < Content-Length: 0\n1 < Connection: keep-alive\n1 < X-Powered-By: Express\n1 < Access-Control-Allow-Origin: *\n1 < Etag: W\/\"2-vyGp6PvFo4RvsFtPoIWeCReyIC8\"\n1 < Via: 1.1 vegur\n1 < CF-Cache-Status: DYNAMIC\n1 < Report-To: {\"endpoints\":[{\"url\":\"https:\\\/\\\/a.nel.cloudflare.com\\\/report\\\/v3?s=Ot%2BudwD%2Fq1grouTA%2Fzt%2FUpUwnuQypw8dZ7KCGtSxuZQt%2FkTstSvsUzob6azNBfHT05BSz70FUoK2Jn7FY1r2waiKftILDG6uhaQvOL9C%2BbC3BhuCXHjohYYOxQ%3D%3D\"}],\"group\":\"cf-nel\",\"max_age\":604800}\n1 < NEL: {\"success_fraction\":0,\"report_to\":\"cf-nel\",\"max_age\":604800}\n1 < Server: cloudflare\n1 < CF-RAY: 75dd52a88eda2206-MIA\n\n\n"},{"result":{"nanos":6300,"millis":0.0063,"status":"passed"},"step":{"line":24,"prefix":"Then","index":2,"text":"status 204"}}],"executorName":"main","line":21,"name":"Eliminar usuario por Id","description":"","durationMillis":749.5299,"startTime":1666390239323,"failed":false,"refId":"[3:21]","endTime":1666390240073,"exampleIndex":-1}],"callDepth":0,"name":"Crud users","description":"","resultDate":"2022-10-21 06:10:40 PM","durationMillis":3414.2645,"passedCount":3}